## Autogenerated by Scribe. DO NOT MODIFY.

name: 'Storage Devices'
description: |-

  APIs for managing physical storage devices (USB sticks, HDDs, SSDs, etc.)
endpoints:
  -
    custom: []
    httpMethods:
      - GET
    uri: api/storage-devices
    metadata:
      custom: []
      groupName: 'Storage Devices'
      groupDescription: |-

        APIs for managing physical storage devices (USB sticks, HDDs, SSDs, etc.)
      subgroup: ''
      subgroupDescription: ''
      title: 'List all storage devices'
      description: 'Retrieve a paginated list of all storage devices with their type information.'
      authenticated: false
      deprecated: false
    headers:
      Content-Type: application/json
      Accept: application/json
    urlParameters: []
    cleanUrlParameters: []
    queryParameters:
      per_page:
        custom: []
        name: per_page
        description: 'Number of items per page.'
        required: false
        example: 15
        type: integer
        enumValues: []
        exampleWasSpecified: true
        nullable: false
        deprecated: false
      page:
        custom: []
        name: page
        description: 'Page number.'
        required: false
        example: 1
        type: integer
        enumValues: []
        exampleWasSpecified: true
        nullable: false
        deprecated: false
      storage_type_id:
        custom: []
        name: storage_type_id
        description: 'Filter by storage device type ID.'
        required: false
        example: 3
        type: integer
        enumValues: []
        exampleWasSpecified: true
        nullable: false
        deprecated: false
      search:
        custom: []
        name: search
        description: 'Search by device name.'
        required: false
        example: SanDisk
        type: string
        enumValues: []
        exampleWasSpecified: true
        nullable: false
        deprecated: false
    cleanQueryParameters:
      per_page: 15
      page: 1
      storage_type_id: 3
      search: SanDisk
    bodyParameters: []
    cleanBodyParameters: []
    fileParameters: []
    responses:
      -
        custom: []
        status: 200
        content: |-
          {
              "data": [
                  {
                      "id": 1,
                      "name_en": "SanDisk USB Stick 16GB",
                      "name_ar": "سان ديسك فلاش ميموري 16GB",
                      "description_en": "High-speed portable storage device",
                      "description_ar": "جهاز تخزين محمول عالي السرعة",
                      "storage_type_id": 3,
                      "size_mb": 16384,
                      "real_size_mb": 15234,
                      "price_iqd": 25000.00,
                      "marka": "SanDisk",
                      "interface": "USB 3.0",
                      "created_at": "2026-06-26T20:00:00.000000Z",
                      "updated_at": "2026-06-26T20:00:00.000000Z",
                      "storage_type": {
                          "id": 3,
                          "name_en": "USB Stick",
                          "name_ar": "فلاش ميموري"
                      }
                  }
              ],
              "meta": {
                  "current_page": 1,
                  "last_page": 5,
                  "per_page": 15,
                  "total": 20
              }
          }
        headers: []
        description: Success
    responseFields: []
    auth: []
    controller: null
    method: null
    route: null
  -
    custom: []
    httpMethods:
      - GET
    uri: 'api/storage-devices/{id}'
    metadata:
      custom: []
      groupName: 'Storage Devices'
      groupDescription: |-

        APIs for managing physical storage devices (USB sticks, HDDs, SSDs, etc.)
      subgroup: ''
      subgroupDescription: ''
      title: 'Get a specific storage device'
      description: 'Retrieve detailed information about a specific storage device by ID.'
      authenticated: false
      deprecated: false
    headers:
      Content-Type: application/json
      Accept: application/json
    urlParameters:
      id:
        custom: []
        name: id
        description: 'The ID of the storage device.'
        required: true
        example: 1
        type: integer
        enumValues: []
        exampleWasSpecified: true
        nullable: false
        deprecated: false
    cleanUrlParameters:
      id: 1
    queryParameters: []
    cleanQueryParameters: []
    bodyParameters: []
    cleanBodyParameters: []
    fileParameters: []
    responses:
      -
        custom: []
        status: 200
        content: |-
          {
              "data": {
                  "id": 1,
                  "name_en": "SanDisk USB Stick 16GB",
                  "name_ar": "سان ديسك فلاش ميموري 16GB",
                  "description_en": "High-speed portable storage device",
                  "description_ar": "جهاز تخزين محمول عالي السرعة",
                  "storage_type_id": 3,
                  "size_mb": 16384,
                  "real_size_mb": 15234,
                  "price_iqd": 25000.00,
                  "marka": "SanDisk",
                  "interface": "USB 3.0",
                  "created_at": "2026-06-26T20:00:00.000000Z",
                  "updated_at": "2026-06-26T20:00:00.000000Z",
                  "storage_type": {
                      "id": 3,
                      "name_en": "USB Stick",
                      "name_ar": "فلاش ميموري"
                  }
              }
          }
        headers: []
        description: Success
      -
        custom: []
        status: 404
        content: |-
          {
              "message": "No query results for model [App\\Models\\StorageDevice] 999"
          }
        headers: []
        description: 'Not Found'
    responseFields: []
    auth: []
    controller: null
    method: null
    route: null
  -
    custom: []
    httpMethods:
      - POST
    uri: api/storage-devices
    metadata:
      custom: []
      groupName: 'Storage Devices'
      groupDescription: |-

        APIs for managing physical storage devices (USB sticks, HDDs, SSDs, etc.)
      subgroup: ''
      subgroupDescription: ''
      title: 'Create a new storage device'
      description: 'Create a new storage device with all required information.'
      authenticated: false
      deprecated: false
    headers:
      Content-Type: application/json
      Accept: application/json
    urlParameters: []
    cleanUrlParameters: []
    queryParameters: []
    cleanQueryParameters: []
    bodyParameters:
      name_en:
        custom: []
        name: name_en
        description: 'The English name.'
        required: true
        example: 'SanDisk USB Stick 16GB'
        type: string
        enumValues: []
        exampleWasSpecified: true
        nullable: false
        deprecated: false
      name_ar:
        custom: []
        name: name_ar
        description: 'The Arabic name.'
        required: true
        example: 'سان ديسك فلاش ميموري 16GB'
        type: string
        enumValues: []
        exampleWasSpecified: true
        nullable: false
        deprecated: false
      description_en:
        custom: []
        name: description_en
        description: 'nullable The English description.'
        required: false
        example: 'High-speed portable storage'
        type: string
        enumValues: []
        exampleWasSpecified: true
        nullable: true
        deprecated: false
      description_ar:
        custom: []
        name: description_ar
        description: 'nullable The Arabic description.'
        required: false
        example: 'جهاز تخزين محمول عالي السرعة'
        type: string
        enumValues: []
        exampleWasSpecified: true
        nullable: true
        deprecated: false
      storage_type_id:
        custom: []
        name: storage_type_id
        description: 'The storage device type ID.'
        required: true
        example: 3
        type: integer
        enumValues: []
        exampleWasSpecified: true
        nullable: false
        deprecated: false
      size_mb:
        custom: []
        name: size_mb
        description: 'The advertised size in MB.'
        required: true
        example: 16384
        type: integer
        enumValues: []
        exampleWasSpecified: true
        nullable: false
        deprecated: false
      real_size_mb:
        custom: []
        name: real_size_mb
        description: 'nullable The actual usable size in MB.'
        required: false
        example: 15234
        type: integer
        enumValues: []
        exampleWasSpecified: true
        nullable: true
        deprecated: false
      price_iqd:
        custom: []
        name: price_iqd
        description: 'The price in Iraqi Dinar.'
        required: true
        example: '25000.00'
        type: numeric
        enumValues: []
        exampleWasSpecified: true
        nullable: false
        deprecated: false
      marka:
        custom: []
        name: marka
        description: 'The brand name.'
        required: true
        example: SanDisk
        type: string
        enumValues: []
        exampleWasSpecified: true
        nullable: false
        deprecated: false
      interface:
        custom: []
        name: interface
        description: 'The interface type.'
        required: true
        example: 'USB 3.0'
        type: string
        enumValues: []
        exampleWasSpecified: true
        nullable: false
        deprecated: false
    cleanBodyParameters:
      name_en: 'SanDisk USB Stick 16GB'
      name_ar: 'سان ديسك فلاش ميموري 16GB'
      description_en: 'High-speed portable storage'
      description_ar: 'جهاز تخزين محمول عالي السرعة'
      storage_type_id: 3
      size_mb: 16384
      real_size_mb: 15234
      price_iqd: '25000.00'
      marka: SanDisk
      interface: 'USB 3.0'
    fileParameters: []
    responses:
      -
        custom: []
        status: 201
        content: |-
          {
              "data": {
                  "id": 21,
                  "name_en": "SanDisk USB Stick 16GB",
                  "name_ar": "سان ديسك فلاش ميموري 16GB",
                  "description_en": "High-speed portable storage",
                  "description_ar": "جهاز تخزين محمول عالي السرعة",
                  "storage_type_id": 3,
                  "size_mb": 16384,
                  "real_size_mb": 15234,
                  "price_iqd": 25000.00,
                  "marka": "SanDisk",
                  "interface": "USB 3.0",
                  "created_at": "2026-06-26T20:00:00.000000Z",
                  "updated_at": "2026-06-26T20:00:00.000000Z"
              }
          }
        headers: []
        description: Success
      -
        custom: []
        status: 422
        content: |-
          {
              "message": "The given data was invalid.",
              "errors": {
                  "name_en": ["The name en field is required."]
              }
          }
        headers: []
        description: 'Validation Error'
    responseFields: []
    auth: []
    controller: null
    method: null
    route: null
  -
    custom: []
    httpMethods:
      - PUT
      - PATCH
    uri: 'api/storage-devices/{id}'
    metadata:
      custom: []
      groupName: 'Storage Devices'
      groupDescription: |-

        APIs for managing physical storage devices (USB sticks, HDDs, SSDs, etc.)
      subgroup: ''
      subgroupDescription: ''
      title: 'Update a storage device'
      description: 'Update the information of an existing storage device.'
      authenticated: false
      deprecated: false
    headers:
      Content-Type: application/json
      Accept: application/json
    urlParameters:
      id:
        custom: []
        name: id
        description: 'The ID of the storage device.'
        required: true
        example: 1
        type: integer
        enumValues: []
        exampleWasSpecified: true
        nullable: false
        deprecated: false
    cleanUrlParameters:
      id: 1
    queryParameters: []
    cleanQueryParameters: []
    bodyParameters:
      name_en:
        custom: []
        name: name_en
        description: 'The English name.'
        required: true
        example: 'SanDisk USB Stick 16GB'
        type: string
        enumValues: []
        exampleWasSpecified: true
        nullable: false
        deprecated: false
      name_ar:
        custom: []
        name: name_ar
        description: 'The Arabic name.'
        required: true
        example: 'سان ديسك فلاش ميموري 16GB'
        type: string
        enumValues: []
        exampleWasSpecified: true
        nullable: false
        deprecated: false
      description_en:
        custom: []
        name: description_en
        description: 'nullable The English description.'
        required: false
        example: architecto
        type: string
        enumValues: []
        exampleWasSpecified: false
        nullable: true
        deprecated: false
      description_ar:
        custom: []
        name: description_ar
        description: 'nullable The Arabic description.'
        required: false
        example: architecto
        type: string
        enumValues: []
        exampleWasSpecified: false
        nullable: true
        deprecated: false
      storage_type_id:
        custom: []
        name: storage_type_id
        description: 'The storage device type ID.'
        required: true
        example: 3
        type: integer
        enumValues: []
        exampleWasSpecified: true
        nullable: false
        deprecated: false
      size_mb:
        custom: []
        name: size_mb
        description: 'The advertised size in MB.'
        required: true
        example: 16384
        type: integer
        enumValues: []
        exampleWasSpecified: true
        nullable: false
        deprecated: false
      real_size_mb:
        custom: []
        name: real_size_mb
        description: 'nullable The actual usable size in MB.'
        required: false
        example: 16
        type: integer
        enumValues: []
        exampleWasSpecified: false
        nullable: true
        deprecated: false
      price_iqd:
        custom: []
        name: price_iqd
        description: 'The price in Iraqi Dinar.'
        required: true
        example: '25000.00'
        type: numeric
        enumValues: []
        exampleWasSpecified: true
        nullable: false
        deprecated: false
      marka:
        custom: []
        name: marka
        description: 'The brand name.'
        required: true
        example: SanDisk
        type: string
        enumValues: []
        exampleWasSpecified: true
        nullable: false
        deprecated: false
      interface:
        custom: []
        name: interface
        description: 'The interface type.'
        required: true
        example: 'USB 3.0'
        type: string
        enumValues: []
        exampleWasSpecified: true
        nullable: false
        deprecated: false
    cleanBodyParameters:
      name_en: 'SanDisk USB Stick 16GB'
      name_ar: 'سان ديسك فلاش ميموري 16GB'
      description_en: architecto
      description_ar: architecto
      storage_type_id: 3
      size_mb: 16384
      real_size_mb: 16
      price_iqd: '25000.00'
      marka: SanDisk
      interface: 'USB 3.0'
    fileParameters: []
    responses:
      -
        custom: []
        status: 200
        content: |-
          {
              "data": {
                  "id": 1,
                  "name_en": "SanDisk USB Stick 16GB",
                  "name_ar": "سان ديسك فلاش ميموري 16GB",
                  "price_iqd": 27000.00,
                  "updated_at": "2026-06-26T20:05:00.000000Z"
              }
          }
        headers: []
        description: Success
      -
        custom: []
        status: 404
        content: |-
          {
              "message": "No query results for model [App\\Models\\StorageDevice] 999"
          }
        headers: []
        description: 'Not Found'
    responseFields: []
    auth: []
    controller: null
    method: null
    route: null
  -
    custom: []
    httpMethods:
      - DELETE
    uri: 'api/storage-devices/{id}'
    metadata:
      custom: []
      groupName: 'Storage Devices'
      groupDescription: |-

        APIs for managing physical storage devices (USB sticks, HDDs, SSDs, etc.)
      subgroup: ''
      subgroupDescription: ''
      title: 'Delete a storage device'
      description: 'Permanently delete a storage device from the database.'
      authenticated: false
      deprecated: false
    headers:
      Content-Type: application/json
      Accept: application/json
    urlParameters:
      id:
        custom: []
        name: id
        description: 'The ID of the storage device.'
        required: true
        example: 1
        type: integer
        enumValues: []
        exampleWasSpecified: true
        nullable: false
        deprecated: false
    cleanUrlParameters:
      id: 1
    queryParameters: []
    cleanQueryParameters: []
    bodyParameters: []
    cleanBodyParameters: []
    fileParameters: []
    responses:
      -
        custom: []
        status: 204
        content: ''
        headers: []
        description: Success
      -
        custom: []
        status: 404
        content: |-
          {
              "message": "No query results for model [App\\Models\\StorageDevice] 999"
          }
        headers: []
        description: 'Not Found'
      -
        custom: []
        status: 409
        content: |-
          {
              "message": "Cannot delete storage device because it is used in orders."
          }
        headers: []
        description: Conflict
    responseFields: []
    auth: []
    controller: null
    method: null
    route: null
