name: Catalog
description: |-

  APIs for browsing games and programs catalog
endpoints:
  -
    custom: []
    httpMethods:
      - GET
    uri: api/catalog
    metadata:
      custom: []
      groupName: Catalog
      groupDescription: |-

        APIs for browsing games and programs catalog
      subgroup: ''
      subgroupDescription: ''
      title: 'List catalog items'
      description: 'Retrieve a paginated list of games and/or programs with filtering options.'
      authenticated: false
      deprecated: false
    headers:
      Content-Type: application/json
      Accept: application/json
    urlParameters: []
    cleanUrlParameters: []
    queryParameters:
      per_page:
        custom: []
        name: per_page
        description: 'Number of items per page (max 100).'
        required: false
        example: 15
        type: integer
        enumValues: []
        exampleWasSpecified: true
        nullable: false
        deprecated: false
      page:
        custom: []
        name: page
        description: 'Page number.'
        required: false
        example: 1
        type: integer
        enumValues: []
        exampleWasSpecified: true
        nullable: false
        deprecated: false
      type:
        custom: []
        name: type
        description: "Filter by type: 'all', 'game', or 'program'."
        required: false
        example: all
        type: string
        enumValues: []
        exampleWasSpecified: true
        nullable: false
        deprecated: false
      search:
        custom: []
        name: search
        description: 'Search by name or tags.'
        required: false
        example: action
        type: string
        enumValues: []
        exampleWasSpecified: true
        nullable: false
        deprecated: false
      category_id:
        custom: []
        name: category_id
        description: 'Filter by category ID.'
        required: false
        example: 1
        type: integer
        enumValues: []
        exampleWasSpecified: true
        nullable: false
        deprecated: false
      platform_id:
        custom: []
        name: platform_id
        description: 'Filter by platform ID.'
        required: false
        example: 2
        type: integer
        enumValues: []
        exampleWasSpecified: true
        nullable: false
        deprecated: false
    cleanQueryParameters:
      per_page: 15
      page: 1
      type: all
      search: action
      category_id: 1
      platform_id: 2
    bodyParameters: []
    cleanBodyParameters: []
    fileParameters: []
    responses:
      -
        custom: []
        status: 200
        content: |-
          {
              "data": [
                  {
                      "id": 1,
                      "name_en": "Game Name",
                      "name_ar": "اسم اللعبة",
                      "type": "game",
                      "category": {
                          "id": 1,
                          "name_en": "Action"
                      },
                      "platform": {
                          "id": 1,
                          "name_en": "PlayStation"
                      }
                  }
              ],
              "meta": {
                  "current_page": 1,
                  "last_page": 5,
                  "per_page": 15,
                  "total": 75
              }
          }
        headers: []
        description: Success
    responseFields: []
    auth: []
    controller: null
    method: null
    route: null
  -
    custom: []
    httpMethods:
      - GET
    uri: api/categories
    metadata:
      custom: []
      groupName: Catalog
      groupDescription: |-

        APIs for browsing games and programs catalog
      subgroup: ''
      subgroupDescription: ''
      title: 'List all categories'
      description: 'Retrieve a list of all available categories with bilingual names.'
      authenticated: false
      deprecated: false
    headers:
      Content-Type: application/json
      Accept: application/json
    urlParameters: []
    cleanUrlParameters: []
    queryParameters: []
    cleanQueryParameters: []
    bodyParameters: []
    cleanBodyParameters: []
    fileParameters: []
    responses:
      -
        custom: []
        status: 200
        content: |-
          [
              {
                  "id": 1,
                  "name_en": "Action",
                  "name_ar": "أكشن",
                  "description_en": "Action games",
                  "description_ar": "ألعاب أكشن",
                  "category_type_id": 1
              },
              {
                  "id": 2,
                  "name_en": "Sports",
                  "name_ar": "رياضة",
                  "description_en": "Sports games",
                  "description_ar": "ألعاب رياضية",
                  "category_type_id": 1
              }
          ]
        headers: []
        description: Success
    responseFields: []
    auth: []
    controller: null
    method: null
    route: null
  -
    custom: []
    httpMethods:
      - GET
    uri: api/game-platforms
    metadata:
      custom: []
      groupName: Catalog
      groupDescription: |-

        APIs for browsing games and programs catalog
      subgroup: ''
      subgroupDescription: ''
      title: 'List game platforms'
      description: 'Retrieve a list of all available game platforms.'
      authenticated: false
      deprecated: false
    headers:
      Content-Type: application/json
      Accept: application/json
    urlParameters: []
    cleanUrlParameters: []
    queryParameters: []
    cleanQueryParameters: []
    bodyParameters: []
    cleanBodyParameters: []
    fileParameters: []
    responses:
      -
        custom: []
        status: 200
        content: |-
          [
              {
                  "id": 1,
                  "name_en": "PlayStation 4",
                  "name_ar": "بلاي ستيشن 4",
                  "created_at": "2026-06-26T20:00:00.000000Z",
                  "updated_at": "2026-06-26T20:00:00.000000Z"
              },
              {
                  "id": 2,
                  "name_en": "Xbox One",
                  "name_ar": "إكس بوكس ون",
                  "created_at": "2026-06-26T20:00:00.000000Z",
                  "updated_at": "2026-06-26T20:00:00.000000Z"
              }
          ]
        headers: []
        description: Success
    responseFields: []
    auth: []
    controller: null
    method: null
    route: null
  -
    custom: []
    httpMethods:
      - GET
    uri: api/program-platforms
    metadata:
      custom: []
      groupName: Catalog
      groupDescription: |-

        APIs for browsing games and programs catalog
      subgroup: ''
      subgroupDescription: ''
      title: ''
      description: ''
      authenticated: false
      deprecated: false
    headers:
      Content-Type: application/json
      Accept: application/json
    urlParameters: []
    cleanUrlParameters: []
    queryParameters: []
    cleanQueryParameters: []
    bodyParameters: []
    cleanBodyParameters: []
    fileParameters: []
    responses:
      -
        custom: []
        status: 200
        content: '[{"id":1,"name_en":"Xbox","name_ar":"إكس بوكس","description_en":"Microsoft Xbox console platform.","description_ar":"منصة جهاز إكس بوكس من مايكروسوفت.","created_at":null,"updated_at":null},{"id":2,"name_en":"Nintendo Switch","name_ar":"نينتندو سويتش","description_en":"Nintendo Switch console platform.","description_ar":"منصة جهاز نينتندو سويتش.","created_at":null,"updated_at":null},{"id":3,"name_en":"Android","name_ar":"أندرويد","description_en":"Android mobile platform.","description_ar":"منصة أندرويد المحمولة.","created_at":null,"updated_at":null},{"id":4,"name_en":"iOS","name_ar":"آي أو إس","description_en":"iOS mobile platform.","description_ar":"منصة آي أو إس المحمولة.","created_at":null,"updated_at":null},{"id":5,"name_en":"macOS","name_ar":"ماك أو إس","description_en":"Apple macOS operating system.","description_ar":"نظام تشغيل ماك أو إس من أبل.","created_at":null,"updated_at":null},{"id":6,"name_en":"Linux","name_ar":"لينكس","description_en":"Linux open-source operating system.","description_ar":"نظام تشغيل لينكس مفتوح المصدر.","created_at":null,"updated_at":null},{"id":7,"name_en":"PS1","name_ar":"بي إس 1","description_en":"Sony PlayStation 1 console.","description_ar":"جهاز بلاي ستيشن 1 من سوني.","created_at":null,"updated_at":null},{"id":8,"name_en":"PS2","name_ar":"بي إس 2","description_en":"Sony PlayStation 2 console.","description_ar":"جهاز بلاي ستيشن 2 من سوني.","created_at":null,"updated_at":null},{"id":9,"name_en":"PS3","name_ar":"بي إس 3","description_en":"Sony PlayStation 3 console.","description_ar":"جهاز بلاي ستيشن 3 من سوني.","created_at":null,"updated_at":null},{"id":10,"name_en":"PS4","name_ar":"بي إس 4","description_en":"Sony PlayStation 4 console.","description_ar":"جهاز بلاي ستيشن 4 من سوني.","created_at":null,"updated_at":null},{"id":11,"name_en":"PS5","name_ar":"بي إس 5","description_en":"Sony PlayStation 5 console.","description_ar":"جهاز بلاي ستيشن 5 من سوني.","created_at":null,"updated_at":null},{"id":12,"name_en":"PSP","name_ar":"بي إس بي","description_en":"Sony PlayStation Portable.","description_ar":"جهاز بلاي ستيشن المحمول من سوني.","created_at":null,"updated_at":null},{"id":13,"name_en":"PS Vita","name_ar":"بي إس فيتا","description_en":"Sony PlayStation Vita handheld console.","description_ar":"جهاز بلاي ستيشن فيتا المحمول من سوني.","created_at":null,"updated_at":null},{"id":14,"name_en":"Nintendo 3DS","name_ar":"نينتندو 3دي إس","description_en":"Nintendo 3DS handheld console.","description_ar":"جهاز نينتندو 3دي إس المحمول.","created_at":null,"updated_at":null},{"id":15,"name_en":"Wii","name_ar":"وي","description_en":"Nintendo Wii console.","description_ar":"جهاز وي من نينتندو.","created_at":null,"updated_at":null},{"id":16,"name_en":"Wii U","name_ar":"وي يو","description_en":"Nintendo Wii U console.","description_ar":"جهاز وي يو من نينتندو.","created_at":null,"updated_at":null},{"id":17,"name_en":"Dreamcast","name_ar":"دريم كاست","description_en":"Sega Dreamcast console.","description_ar":"جهاز دريم كاست من سيجا.","created_at":null,"updated_at":null},{"id":18,"name_en":"Windows","name_ar":"ويندوز","description_en":"Microsoft Windows operating system.","description_ar":"نظام تشغيل ويندوز من مايكروسوفت.","created_at":null,"updated_at":null}]'
        headers:
          cache-control: 'no-cache, private'
          content-type: application/json
          access-control-allow-origin: '*'
        description: null
    responseFields: []
    auth: []
    controller: null
    method: null
    route: null
  -
    custom: []
    httpMethods:
      - GET
    uri: api/platforms
    metadata:
      custom: []
      groupName: Catalog
      groupDescription: |-

        APIs for browsing games and programs catalog
      subgroup: ''
      subgroupDescription: ''
      title: 'List game platforms'
      description: 'Retrieve a list of all available game platforms.'
      authenticated: false
      deprecated: false
    headers:
      Content-Type: application/json
      Accept: application/json
    urlParameters: []
    cleanUrlParameters: []
    queryParameters: []
    cleanQueryParameters: []
    bodyParameters: []
    cleanBodyParameters: []
    fileParameters: []
    responses:
      -
        custom: []
        status: 200
        content: |-
          [
              {
                  "id": 1,
                  "name_en": "PlayStation 4",
                  "name_ar": "بلاي ستيشن 4",
                  "created_at": "2026-06-26T20:00:00.000000Z",
                  "updated_at": "2026-06-26T20:00:00.000000Z"
              },
              {
                  "id": 2,
                  "name_en": "Xbox One",
                  "name_ar": "إكس بوكس ون",
                  "created_at": "2026-06-26T20:00:00.000000Z",
                  "updated_at": "2026-06-26T20:00:00.000000Z"
              }
          ]
        headers: []
        description: Success
    responseFields: []
    auth: []
    controller: null
    method: null
    route: null
